Text Mining With R
…
Use janeaustenr package where a line is analogous to a literal printed line in a physical book. Use mutate() to annotate a linenumber quantity to keep track of lines in the original format and a chapter (using a regex) to find where all the chapters are:

library(janeaustenr)
library(dplyr)
library(stringr)

original_books <- austen_books() %>%
  group_by(book) %>%
  mutate(linenumber = row_number(),
         chapter = cumsum(str_detect(text, regex("^chapter [\\divxlc]",
                                                 ignore_case = TRUE)))) %>%
  ungroup()
(original_books)

## # A tibble: 73,422 x 4
##    text                  book                linenumber chapter
##    <chr>                 <fct>                    <int>   <int>
##  1 SENSE AND SENSIBILITY Sense & Sensibility          1       0
##  2 ""                    Sense & Sensibility          2       0
##  3 by Jane Austen        Sense & Sensibility          3       0
##  4 ""                    Sense & Sensibility          4       0
##  5 (1811)                Sense & Sensibility          5       0
##  6 ""                    Sense & Sensibility          6       0
##  7 ""                    Sense & Sensibility          7       0
##  8 ""                    Sense & Sensibility          8       0
##  9 ""                    Sense & Sensibility          9       0
## 10 CHAPTER 1             Sense & Sensibility         10       1
## # ... with 73,412 more rows

To work with this as a tidy dataset, we need to restructure it in the one-token-per-row format, which as we saw earlier is done with unnest_tokens() function:

library(tidytext)
tidy_books <- original_books %>%
  unnest_tokens(word, text)
tidy_books

## # A tibble: 725,055 x 4
##    book                linenumber chapter word       
##    <fct>                    <int>   <int> <chr>      
##  1 Sense & Sensibility          1       0 sense      
##  2 Sense & Sensibility          1       0 and        
##  3 Sense & Sensibility          1       0 sensibility
##  4 Sense & Sensibility          3       0 by         
##  5 Sense & Sensibility          3       0 jane       
##  6 Sense & Sensibility          3       0 austen     
##  7 Sense & Sensibility          5       0 1811       
##  8 Sense & Sensibility         10       1 chapter    
##  9 Sense & Sensibility         10       1 1          
## 10 Sense & Sensibility         13       1 the        
## # ... with 725,045 more rows

Often in text analysis, we will want to remove stop words; stop words are words that are not useful for analysis, typically extremely common words such as the, of, to and so forth in english. We can remove stop words kept in the tidytext dataset as stop_words and anti_join:

data(stop_words)
tidy_books <- tidy_books %>%
  anti_join(stop_words)

We can use dplyrs count() to find the most common words in all the books as a whole:

tidy_books %>%
  count(word, sort = TRUE)

## # A tibble: 13,914 x 2
##    word       n
##    <chr>  <int>
##  1 miss    1855
##  2 time    1337
##  3 fanny    862
##  4 dear     822
##  5 lady     817
##  6 sir      806
##  7 day      797
##  8 emma     787
##  9 sister   727
## 10 house    699
## # ... with 13,904 more rows
…
Let us get the The Time Machine, The War of the Worlds, The invisible man and The Island of Doctor Moreau. We can access these works using gutenberg_download() and the Project Gutenberg ID numbers for each novel.

library(gutenbergr)
hgwells <- gutenberg_download(c(35, 36, 5230, 159))

tidy_hgwells <- hgwells %>%
  unnest_tokens(word, text) %>%
  anti_join(stop_words)

Let us see what are the most common words in these four novels by HG Wells:

tidy_hgwells %>%
  count(word, sort = TRUE)

## # A tibble: 11,769 x 2
##    word       n
##    <chr>  <int>
##  1 time     454
##  2 people   302
##  3 door     260
##  4 heard    249
##  5 black    232
##  6 stood    229
##  7 white    222
##  8 hand     218
##  9 kemp     213
## 10 eyes     210
## # ... with 11,759 more rows

Let us get Jane Eyre, Wuthering Heights, The Tenant of Wildfell Hall, Villette, and Agnes Grey. We will again use the Project Gutenberg ID numbers for each novel and access the texts using gutenberg_download():

bronte <- gutenberg_download(c(1260, 768, 969, 9182, 767))
tidy_bronte <- bronte %>%
  unnest_tokens(word, text) %>%
  anti_join(stop_words)

What are the most common words in these novels of the Bronte sisters?

tidy_bronte %>%
  count(word, sort = TRUE)

## # A tibble: 23,050 x 2
##    word       n
##    <chr>  <int>
##  1 time    1065
##  2 miss     855
##  3 day      827
##  4 hand     768
##  5 eyes     713
##  6 night    647
##  7 heart    638
##  8 looked   601
##  9 door     592
## 10 half     586
## # ... with 23,040 more rows
…
Word frequencies are more correlated between the Austen and Bronte Novels than between Austen and H. G. Wells.

SENTIMENT ANALYSIS WITH TIDY DATA

All three of these lexicons are based on unigrams, i.e., single words. These lexicons contain many English words and the words are assigned scores for positive/negative sentiment, and also possibly emotions like joy, anger, sadness, and so forth. The nrc lexicon categorizes words in a binary fashion (yes/no) into categories of positive, negative, anger, anticipation, disgust, fear, joy, sadness, surprise, and trust. The bing lexicon categorizes words in a binary fashion into positive and negative categories. The AFINN lexicon assigns words with a score that runs between -5 and 5, with negative scores indicating negative sentiment and positive scores indicating positive sentiment. All of this information is tabulated in the sentiments dataset, and tidytext provides a function get_sentiments() to get specific sentiment lexicons without the columns that are not used in that lexicon.

library(tidytext)
get_sentiments("bing")

## # A tibble: 6,786 x 2
##    word        sentiment
##    <chr>       <chr>    
##  1 2-faces     negative 
##  2 abnormal    negative 
##  3 abolish     negative 
##  4 abominable  negative 
##  5 abominably  negative 
##  6 abominate   negative 
##  7 abomination negative 
##  8 abort       negative 
##  9 aborted     negative 
## 10 aborts      negative 
## # ... with 6,776 more rows
…
Most common positive and negative words

bing_word_counts <- tidy_books %>% 
  inner_join(get_sentiments("bing")) %>%
  count(word, sentiment, sort = TRUE) %>%
  ungroup()
bing_word_counts

## # A tibble: 2,555 x 3
##    word      sentiment     n
##    <chr>     <chr>     <int>
##  1 miss      negative   1855
##  2 happy     positive    534
##  3 love      positive    495
##  4 pleasure  positive    462
##  5 poor      negative    424
##  6 happiness positive    369
##  7 comfort   positive    292
##  8 doubt     negative    281
##  9 affection positive    272
## 10 perfectly positive    271
## # ... with 2,545 more rows
…
book_words <- austen_books() %>%
  unnest_tokens(word, text) %>%
  count(book, word, sort = TRUE)

total_words <- book_words %>% 
  group_by(book) %>% 
  summarize(total = sum(n))

book_words <- left_join(book_words, total_words)

book_words

## # A tibble: 40,379 x 4
##    book              word      n  total
##    <fct>             <chr> <int>  <int>
##  1 Mansfield Park    the    6206 160460
##  2 Mansfield Park    to     5475 160460
##  3 Mansfield Park    and    5438 160460
##  4 Emma              to     5239 160996
##  5 Emma              the    5201 160996
##  6 Emma              and    4896 160996
##  7 Mansfield Park    of     4778 160460
##  8 Pride & Prejudice the    4331 122204
##  9 Emma              of     4291 160996
## 10 Pride & Prejudice to     4162 122204
## # ... with 40,369 more rows

Zipfs law states that the frequency that a word appears is inversely proportional to its rank.

freq_by_rank <- book_words %>% 
  group_by(book) %>% 
  mutate(rank = row_number(), 
         `term frequency` = n/total)

freq_by_rank

## # A tibble: 40,379 x 6
## # Groups:   book [6]
##    book              word      n  total  rank `term frequency`
##    <fct>             <chr> <int>  <int> <int>            <dbl>
##  1 Mansfield Park    the    6206 160460     1           0.0387
##  2 Mansfield Park    to     5475 160460     2           0.0341
##  3 Mansfield Park    and    5438 160460     3           0.0339
##  4 Emma              to     5239 160996     1           0.0325
##  5 Emma              the    5201 160996     2           0.0323
##  6 Emma              and    4896 160996     3           0.0304
##  7 Mansfield Park    of     4778 160460     4           0.0298
##  8 Pride & Prejudice the    4331 122204     1           0.0354
##  9 Emma              of     4291 160996     4           0.0267
## 10 Pride & Prejudice to     4162 122204     2           0.0341
## # ... with 40,369 more rows

The bind_tf_idf function

The idea of tf-idf is to find the important words for the content of each document by decreasing the weight for commonly used words and increasing the weight for words that are not used very much in a collection or corpus of documents, in this case, the group of Jane Austens novels as a whole. Calculating tf-idf attempts to find the words that are important (i.e., common) in a text, but not too common.

book_words <- book_words %>%
  bind_tf_idf(word, book, n)
book_words

## # A tibble: 40,379 x 7
##    book              word      n  total     tf   idf tf_idf
##    <fct>             <chr> <int>  <int>  <dbl> <dbl>  <dbl>
##  1 Mansfield Park    the    6206 160460 0.0387     0      0
##  2 Mansfield Park    to     5475 160460 0.0341     0      0
##  3 Mansfield Park    and    5438 160460 0.0339     0      0
##  4 Emma              to     5239 160996 0.0325     0      0
##  5 Emma              the    5201 160996 0.0323     0      0
##  6 Emma              and    4896 160996 0.0304     0      0
##  7 Mansfield Park    of     4778 160460 0.0298     0      0
##  8 Pride & Prejudice the    4331 122204 0.0354     0      0
##  9 Emma              of     4291 160996 0.0267     0      0
## 10 Pride & Prejudice to     4162 122204 0.0341     0      0
## # ... with 40,369 more rows

Let us look at terms with high tf-tdf in Jane Austens novels:

book_words %>%
  select(-total) %>%
  arrange(desc(tf_idf))

## # A tibble: 40,379 x 6
##    book                word          n      tf   idf  tf_idf
##    <fct>               <chr>     <int>   <dbl> <dbl>   <dbl>
##  1 Sense & Sensibility elinor      623 0.00519  1.79 0.00931
##  2 Sense & Sensibility marianne    492 0.00410  1.79 0.00735
##  3 Mansfield Park      crawford    493 0.00307  1.79 0.00551
##  4 Pride & Prejudice   darcy       373 0.00305  1.79 0.00547
##  5 Persuasion          elliot      254 0.00304  1.79 0.00544
##  6 Emma                emma        786 0.00488  1.10 0.00536
##  7 Northanger Abbey    tilney      196 0.00252  1.79 0.00452
##  8 Emma                weston      389 0.00242  1.79 0.00433
##  9 Pride & Prejudice   bennet      294 0.00241  1.79 0.00431
## 10 Persuasion          wentworth   191 0.00228  1.79 0.00409
## # ... with 40,369 more rows
…
A corpus of Physics texts

library(gutenbergr)
physics <- gutenberg_download(c(37729, 14725, 13476, 30144),
                              meta_fields = "author")

Let us use unnest_tokens() and count() to find out how many times each word was used in each text.

physics_words <- physics %>%
  unnest_tokens(word, text) %>%
  count(author, word, sort = TRUE)
physics_words

## # A tibble: 18,849 x 3
##    author                  word      n
##    <chr>                   <chr> <int>
##  1 Robespierre, Maximilien de     5407
##  2 Robespierre, Maximilien la     4251
##  3 Galilei, Galileo        the    3760
##  4 Tesla, Nikola           the    3604
##  5 Huygens, Christiaan     the    3553
##  6 Robespierre, Maximilien les    3192
##  7 Robespierre, Maximilien et     2617
##  8 Robespierre, Maximilien le     2325
##  9 Galilei, Galileo        of     2049
## 10 Robespierre, Maximilien que    2003
## # ... with 18,839 more rows
…
Tokenizing by n-gram

We do this by adding the token = ngrams option to unnest_tokens(), and setting n to the number of words we wish to capture in each n-gram. When we set n to 2, we are examining pairs of two consecutive words, often called bigrams:

library(dplyr)
library(tidytext)
library(janeaustenr)

austen_bigrams <- austen_books() %>%
  unnest_tokens(bigram, text, token = "ngrams", n = 2)

austen_bigrams

## # A tibble: 725,049 x 2
##    book                bigram         
##    <fct>               <chr>          
##  1 Sense & Sensibility sense and      
##  2 Sense & Sensibility and sensibility
##  3 Sense & Sensibility sensibility by 
##  4 Sense & Sensibility by jane        
##  5 Sense & Sensibility jane austen    
##  6 Sense & Sensibility austen 1811    
##  7 Sense & Sensibility 1811 chapter   
##  8 Sense & Sensibility chapter 1      
##  9 Sense & Sensibility 1 the          
## 10 Sense & Sensibility the family     
## # ... with 725,039 more rows

Counting and filtering n-grams

austen_bigrams %>% 
  count(bigram, sort = TRUE)

## # A tibble: 211,236 x 2
##    bigram       n
##    <chr>    <int>
##  1 of the    3017
##  2 to be     2787
##  3 in the    2368
##  4 it was    1781
##  5 i am      1545
##  6 she had   1472
##  7 of her    1445
##  8 to the    1387
##  9 she was   1377
## 10 had been  1299
## # ... with 211,226 more rows
…
bigrams_separated <- austen_bigrams %>%
  separate(bigram, c("word1", "word2"), sep = " ")

bigrams_filtered <- bigrams_separated %>%
  filter(!word1 %in% stop_words$word) %>%
  filter(!word2 %in% stop_words$word)

# new bigram counts:
bigram_counts <- bigrams_filtered %>% 
  count(word1, word2, sort = TRUE)

bigram_counts

## # A tibble: 33,421 x 3
##    word1   word2         n
##    <chr>   <chr>     <int>
##  1 sir     thomas      287
##  2 miss    crawford    215
##  3 captain wentworth   170
##  4 miss    woodhouse   162
##  5 frank   churchill   132
##  6 lady    russell     118
##  7 lady    bertram     114
##  8 sir     walter      113
##  9 miss    fairfax     109
## 10 colonel brandon     108
## # ... with 33,411 more rows

Most common bigrams not containing the stop-words:

bigrams_united <- bigrams_filtered %>%
  unite(bigram, word1, word2, sep = " ")

bigrams_united

## # A tibble: 44,784 x 2
##    book                bigram                  
##    <fct>               <chr>                   
##  1 Sense & Sensibility jane austen             
##  2 Sense & Sensibility austen 1811             
##  3 Sense & Sensibility 1811 chapter            
##  4 Sense & Sensibility chapter 1               
##  5 Sense & Sensibility norland park            
##  6 Sense & Sensibility surrounding acquaintance
##  7 Sense & Sensibility late owner              
##  8 Sense & Sensibility advanced age            
##  9 Sense & Sensibility constant companion      
## 10 Sense & Sensibility happened ten            
## # ... with 44,774 more rows

For most common trigrams, we can use n=3:

austen_books() %>%
  unnest_tokens(trigram, text, token = "ngrams", n = 3) %>%
  separate(trigram, c("word1", "word2", "word3"), sep = " ") %>%
  filter(!word1 %in% stop_words$word,
         !word2 %in% stop_words$word,
         !word3 %in% stop_words$word) %>%
  count(word1, word2, word3, sort = TRUE)

## # A tibble: 8,757 x 4
##    word1     word2     word3         n
##    <chr>     <chr>     <chr>     <int>
##  1 dear      miss      woodhouse    23
##  2 miss      de        bourgh       18
##  3 lady      catherine de           14
##  4 catherine de        bourgh       13
##  5 poor      miss      taylor       11
##  6 sir       walter    elliot       11
##  7 ten       thousand  pounds       11
##  8 dear      sir       thomas       10
##  9 twenty    thousand  pounds        8
## 10 replied   miss      crawford      7
## # ... with 8,747 more rows

Analyzing bigrams

To look at the most common streets mentioned in each book:

bigrams_filtered %>%
  filter(word2 == "street") %>%
  count(book, word1, sort = TRUE)

## # A tibble: 34 x 3
##    book                word1           n
##    <fct>               <chr>       <int>
##  1 Sense & Sensibility berkeley       16
##  2 Sense & Sensibility harley         16
##  3 Northanger Abbey    pulteney       14
##  4 Northanger Abbey    milsom         11
##  5 Mansfield Park      wimpole        10
##  6 Pride & Prejudice   gracechurch     9
##  7 Sense & Sensibility conduit         6
##  8 Sense & Sensibility bond            5
##  9 Persuasion          milsom          5
## 10 Persuasion          rivers          4
## # ... with 24 more rows

tf-idf of bigrams across Austen novels:

bigram_tf_idf <- bigrams_united %>%
  count(book, bigram) %>%
  bind_tf_idf(bigram, book, n) %>%
  arrange(desc(tf_idf))

bigram_tf_idf

## # A tibble: 36,217 x 6
##    book                bigram                n     tf   idf tf_idf
##    <fct>               <chr>             <int>  <dbl> <dbl>  <dbl>
##  1 Persuasion          captain wentworth   170 0.0299  1.79 0.0535
##  2 Mansfield Park      sir thomas          287 0.0287  1.79 0.0515
##  3 Mansfield Park      miss crawford       215 0.0215  1.79 0.0386
##  4 Persuasion          lady russell        118 0.0207  1.79 0.0371
##  5 Persuasion          sir walter          113 0.0198  1.79 0.0356
##  6 Emma                miss woodhouse      162 0.0170  1.79 0.0305
##  7 Northanger Abbey    miss tilney          82 0.0159  1.79 0.0286
##  8 Sense & Sensibility colonel brandon     108 0.0150  1.79 0.0269
##  9 Emma                frank churchill     132 0.0139  1.79 0.0248
## 10 Pride & Prejudice   lady catherine      100 0.0138  1.79 0.0247
## # ... with 36,207 more rows

Using bigrams to provide context in sentiment analysis

The words happy and like will be counted as positive, even in a sentence like Im not happy and I dont like it. Since we have the date organized into bigrams, it is easy to tell how often words are preceded by a word like not.

bigrams_separated %>%
  filter(word1 == "not") %>%
  count(word1, word2, sort = TRUE)

## # A tibble: 1,246 x 3
##    word1 word2     n
##    <chr> <chr> <int>
##  1 not   be      610
##  2 not   to      355
##  3 not   have    327
##  4 not   know    252
##  5 not   a       189
##  6 not   think   176
##  7 not   been    160
##  8 not   the     147
##  9 not   at      129
## 10 not   in      118
## # ... with 1,236 more rows

Visualizing a network of bigrams with ggraph

library(igraph)
bigram_counts

## # A tibble: 33,421 x 3
##    word1   word2         n
##    <chr>   <chr>     <int>
##  1 sir     thomas      287
##  2 miss    crawford    215
##  3 captain wentworth   170
##  4 miss    woodhouse   162
##  5 frank   churchill   132
##  6 lady    russell     118
##  7 lady    bertram     114
##  8 sir     walter      113
##  9 miss    fairfax     109
## 10 colonel brandon     108
## # ... with 33,411 more rows
…
